[
{
    "url" : "weather",
    "view" : "views/features/weather.html",
    "controller" : "",
    "rights"  : "USER",
    "label"  : "Weather",
    "order"  : 4
  },
  {
    "url" : "home",
    "view" : "views/home-page.html",
    "controller" : "HomeController",
    "rights"  : "USER",
    "label"  : "Travel Tale",
    "order"  : 1
  },
  {
    "url" : "places",
    "view" : "views/features/places.html",
    "controller" : "",
    "rights"  : "USER",
    "label"  : "Places",
    "order"  : 2

  },
  {
    "url" : "useraccount",
    "view" : "views/user/user-account.html",
    "controller" : "",
    "rights"  : "USER",
    "label"  : "My Account",
    "order"  : 3
  },
  {
    "url" : "fileupload",
    "view" : "views/admin/file-upload.html",
    "controller" : "",
    "rights"  : "ADMIN",
    "label"  : "Create Destination",
    "order"  : 5
  }
]
